693949 503825 509
142091 573394 470
988822 216936 525
72486 180758 383
692686 799186 504
199361 125794 383
428223 665051 509
977243 828449 525
755171 317191 509
605811 279785 470
197064 768563 509
171231 773650 509
91048 570314 470
63490 145855 375
270510 340746 389
371491 960667 525
416862 714741 509
813380 574615 509
698444 724037 504
465327 121766 449
828167 499319 509
390803 564341 470
88693 80519 333
920375 764523 525
212827 827390 509
786418 905439 525
210196 332377 443
844474 817115 525
104712 157915 383
854402 514180 525
931811 84179 525
36693 992629 525
598817 568434 434
9887 261713 443
569514 953057 525
979139 571678 525
981320 587104 525
34255 513030 470
635195 603049 509
665093 477893 509
606130 354569 470
527534 357094 470
973700 670190 525
848718 338010 525
652902 865812 525
456474 891231 525
412373 685905 509
379751 214101 443
206956 941853 525
901710 193918 525
604507 649622 509
764588 885042 525
461960 623155 470
908409 534189 525
101830 500171 449
491461 323218 449
112647 386709 443
366698 925826 525
655088 688078 442
971355 539345 525
816483 514319 509
876221 888971 445
595966 189216 470
251602 821116 509
849580 223583 525
916122 924762 445
566048 575814 377
829523 553132 509
497578 651309 509
223254 293074 443
144107 384076 443
902800 532486 525
516650 886328 525
957329 841297 507
314208 130256 443
62728 546560 470
91243 728270 509
677193 218557 509
97896 157173 383
845768 796076 525
958378 588318 525
164807 684956 509
14850 392590 443
61129 971837 525
449281 7722 449
226174 366968 443
784338 57799 509
221674 360103 443
760725 353038 509
41627 530903 470
522980 716798 509
584903 799271 509
359686 179084 443
794576 449349 509
874742 923919 476
113601 156749 383
93564 588014 470
843071 643785 525
410210 190389 449
872965 474092 525
150983 607085 470
518655 919294 525
624516 627037 509
59649 333885 443
728406 627995 504
271886 820527 509
852854 330382 525
62437 256322 443
216380 933580 525
224819 854277 525
335254 313302 384
432565 462453 444
399954 426405 449
998667 786570 525
698313 916248 525
114649 336349 443
740099 443100 509
523877 266698 470
215689 80614 383
917398 629628 525
325455 740827 509
564913 763778 509
451092 372353 449
367663 710176 509
499345 465118 426
238611 52321 443
7465 820019 509
898472 358938 525
563050 901086 525
457019 934983 525
596897 508409 470
917021 834769 525
531735 344812 470
198264 549284 470
182092 764700 509
112388 509727 449
998699 635997 525
477387 467463 413
52836 200567 383
819881 665704 504
771872 203313 509
847082 360051 525
775269 215537 509
748528 828665 468
569271 581547 390
691549 911147 525
158241 297944 443
313196 231765 407
611391 452971 470
316534 694457 509
122355 224506 386
664196 890471 525
903426 727841 525
134637 466667 449
588954 494053 470
633639 380248 509
122402 826734 509
558810 84838 470
967774 209587 525
680584 355052 509
977814 596409 525
307217 353433 441
582354 369176 470
759771 230499 509
44309 935304 525
610293 705118 509
745035 148385 509
425899 811067 509
452150 479949 444
937261 58175 525
1352 45058 324
631633 121764 509
984044 907565 507
322439 80453 443
235776 235948 231
179756 261005 443
353610 54041 443
359414 947258 525
753254 682810 504
837025 989744 525
406902 180295 443
914881 358176 525
979020 867976 507
166571 778612 509
713299 371061 509
958459 469815 525
796493 81859 509
993425 609521 525
696346 529535 509
579679 979832 525
76717 170586 383
882526 732562 525
63082 649564 509
243037 66041 443
395033 546246 470
211135 791546 509
891981 666415 525
91923 417936 449
805056 57312 509
143505 191330 383
964971 378246 525
732950 713395 411
741609 998833 525
896042 456557 525
458396 665318 509
290509 652727 509
543297 429449 470
434169 681839 509
742766 53063 509
406584 183897 443
168794 13969 383
622102 402195 470
251309 158459 443
863984 615619 525
779773 435020 509
382781 804716 509
755815 475108 509
616007 218471 470
706896 100834 509
360131 71808 443
615099 888245 525
385886 681397 509
175714 506061 449
539389 688585 509
380969 121277 443
522067 673486 509
324450 95215 443
815412 685647 504
318736 483892 449
116774 474917 449
120515 674534 509
233361 50444 443
