427200 444118 400
13532 790828 509
715136 790796 468
421444 518148 470
500842 478938 426
771497 540648 509
650257 860930 525
405963 830490 509
971065 80410 525
452922 343685 449
235842 127839 443
899859 65437 525
173400 627574 509
672945 655938 442
690113 186927 509
534066 586937 452
359763 903784 525
517726 581214 452
14584 614543 470
198236 765280 509
96182 431704 449
336182 654441 509
326421 444648 449
308924 847402 525
585975 474235 470
766941 304576 509
831264 471551 509
71498 247165 443
622680 69415 470
67363 436091 449
881662 878914 357
122716 161120 383
895512 166813 525
746288 710014 424
215002 333291 443
728613 343530 509
355833 744463 509
742340 170246 509
463702 16468 449
84418 283919 443
403961 561072 470
939164 517909 525
712618 833652 468
704034 555251 509
145970 721705 509
276282 524742 470
497644 619929 470
135380 666378 509
370207 388607 423
597754 699515 509
501149 257392 449
932800 435111 525
52512 19688 324
163795 459310 449
989140 993725 352
65673 702170 509
219415 386098 443
362925 15746 443
204950 516288 470
200410 595140 470
707351 625938 509
488180 718066 509
886843 490404 525
998778 537762 525
81787 479717 449
44905 326534 443
681907 76436 509
229732 592046 470
222396 234756 443
195214 1338 383
994024 147906 525
324449 34128 443
241017 475911 449
593000 111437 470
38742 446464 449
676313 981562 525
145599 550320 470
96681 465088 449
711838 904942 525
330366 220720 443
368132 983191 525
24065 504792 449
196557 766215 509
712586 575421 509
481332 615240 470
39974 838807 525
692571 525490 509
779829 850533 525
722658 219853 509
488944 991826 525
965199 446055 525
883145 549418 525
556955 670611 509
50807 628056 509
859123 174055 525
33772 838926 525
939816 47206 525
83577 146176 375
433053 422644 418
634476 705112 504
162737 848293 525
747684 558426 509
257693 862917 525
515381 182049 470
874036 718259 525
522255 744888 509
457815 466927 444
414969 669591 509
230869 100980 443
237280 205925 443
832201 91704 509
16149 659441 509
347437 742370 509
950289 856802 507
975625 967739 458
758618 564686 509
658800 411212 509
533861 460615 470
358691 945655 525
752756 702025 504
32997 599511 470
564417 384029 470
111479 80017 354
764759 557598 509
358867 409678 436
78659 541000 470
53759 389261 443
760471 897340 525
908473 976490 507
441009 980424 525
715381 440501 509
989685 376371 525
311969 185632 443
283020 443705 449
214750 446868 449
633230 727147 504
570254 659477 509
123603 130145 344
668256 757668 504
375249 391614 436
380978 666951 509
921949 830458 525
471242 197827 449
251175 37899 443
488837 803797 509
258356 867427 525
154179 257564 443
611323 89491 470
377794 351891 423
561304 874656 525
160730 488871 449
654704 405702 509
949755 743041 525
434033 938071 525
630590 290172 509
208197 454420 449
390796 672444 509
824439 843103 525
635695 115291 509
11597 223608 386
585950 738925 509
616125 112683 470
231196 905707 525
251677 178202 443
624611 466323 470
6632 945801 525
286309 613494 470
580011 297402 470
496179 26300 449
946373 311353 525
181061 88 383
279138 695490 509
277825 48647 443
65776 749283 509
625940 127037 470
684970 802297 504
565749 881520 525
648732 400883 509
833307 523443 509
11810 133219 354
627049 339301 509
933524 724607 525
532261 248322 470
788858 647019 504
72656 91938 351
175616 197734 365
288667 289505 345
405634 467628 449
191708 947982 525
501217 174502 449
446840 41384 449
758514 304754 509
113138 928947 525
489310 264336 449
311990 520305 470
96833 309810 443
15434 330160 443
624559 360184 470
974309 649798 525
498088 711351 509
373828 469224 449
902349 586087 525
401874 165303 443
421176 466742 444
888199 236553 525
334776 215748 443
848418 248330 525
668449 225737 509
915836 741002 525
701840 438362 509
249051 42268 443
219928 235511 443
117364 889669 525
584757 344462 470
769540 937100 525
701676 159250 509
921185 710649 525
540429 719359 509
803663 946048 525
859458 285685 525
786864 745858 468
202272 568375 470
772500 433894 509
153556 104099 375
850650 732784 525
257424 790647 509
740351 675097 504
910896 731927 525
6362 885959 525
539077 980282 525
993330 293577 525
12079 525001 470
912137 444486 525
994674 734490 525
663995 464565 509
617134 6452 470
67114 708340 509
404642 522348 470
298426 865409 525
101285 564667 470
556530 902713 525
649251 842100 525
936339 987690 507
957772 143254 525
65296 351896 443
132652 22968 354
172548 894405 525
577606 965103 525
488777 544281 470
766591 207920 509
444338 479593 444
49438 418985 449
911742 628004 525
419950 733565 509
116367 584393 470
216842 861351 525
135178 164631 383
458094 948371 525
11421 698587 509
805014 851555 525
374532 963019 525
461123 55542 449
922463 51732 525
262096 173688 443
170175 812476 509
509495 413478 444
817448 397936 509
249877 191065 443
944205 363238 525
192010 598277 470
833920 566436 509
