981344 539561 525
955085 902931 507
432146 806033 509
331597 22210 443
542144 821100 509
262719 516858 470
586667 666495 509
59681 634078 509
711046 731479 411
572656 783829 509
536353 157924 470
202079 380290 443
125223 393882 443
614385 418030 470
459030 859209 525
900230 609476 525
255247 50263 443
317774 973834 525
997616 714147 525
65664 244582 443
675332 528308 509
713434 784364 468
835336 577596 509
738241 631434 504
57066 557466 470
284090 334969 389
460332 556987 470
777957 759648 468
430315 857633 525
255388 3727 443
389292 647318 509
377054 196006 443
916184 85730 525
174113 197353 365
956909 448268 525
383885 885586 525
623960 550974 447
429897 366443 449
828522 545520 509
739275 957064 525
200088 267121 443
962424 33304 525
626930 626322 509
641864 592458 509
819448 408356 509
744555 829448 468
661217 293282 509
636893 972664 525
620235 532058 452
174931 726027 509
984735 193380 525
655458 44893 509
925389 405627 525
251863 39887 443
226893 258059 443
251052 287496 407
84787 912959 525
384767 202331 443
739033 116949 509
466944 626492 509
763119 517039 509
935269 752632 525
514990 694939 509
144451 259605 443
308058 685767 509
199440 363134 443
411469 477053 444
112234 721067 509
189734 625403 470
297218 903667 525
978225 477747 525
25650 174989 383
510266 177196 449
661913 324071 509
363404 818629 509
955965 688719 525
511182 999797 525
860034 246967 525
72744 450312 449
397022 480126 449
171001 695157 509
911502 668906 525
260192 429520 449
314832 572769 470
912946 24778 525
817035 553773 509
758931 741905 424
277195 439568 449
829703 274402 509
363248 618791 470
463598 600118 470
285084 241923 407
768448 645101 504
520244 508827 470
622717 903149 525
338826 851591 525
76406 667649 509
286407 931670 525
629443 170637 509
766540 448781 509
835182 214560 509
731394 392434 509
225578 255987 443
716986 181548 509
362381 949119 525
985495 989593 396
119113 319954 443
228252 110482 386
385182 797648 509
819575 912861 525
714514 643727 504
677840 854848 525
317880 790790 509
556842 662348 509
505957 167839 449
598280 330777 470
5352 630971 509
214060 174914 373
211578 732963 509
540409 58600 470
209319 58080 383
850778 260136 525
359005 18872 443
33646 555057 470
818780 677115 504
286627 294045 389
392515 961436 525
681953 762299 504
705453 286215 509
201298 542778 470
576000 993165 525
212324 655395 509
123405 559929 470
454321 923520 525
192419 752566 509
14352 960065 525
775542 184551 509
785698 831938 468
450007 213905 449
209610 236181 443
324393 811234 509
839197 501668 525
696999 974122 525
562837 262086 470
77797 925556 525
461979 823289 509
570797 950081 525
826433 781431 468
647348 874849 525
38627 169694 383
97112 475970 449
419617 834877 509
265757 682984 509
610320 266294 470
426410 250136 449
361042 151017 443
442572 203227 449
909404 187809 525
731291 191161 509
678590 441653 509
728568 571855 509
206570 876308 525
685259 547898 509
145733 121214 375
703084 705223 504
31347 567270 470
32194 858437 525
20760 825496 509
242910 748987 509
446452 389787 449
859051 602619 525
725136 310330 509
63485 948775 525
684703 851171 525
264269 714497 509
248720 758389 509
659729 492281 509
583331 310381 470
21011 927446 525
199281 211295 373
795059 514847 509
368138 534974 470
49005 886700 525
633403 696067 442
396019 884609 525
623434 539359 452
225324 440160 449
974782 704949 525
911444 133953 525
91526 290401 443
701212 531235 509
565541 904711 525
524531 207553 470
382773 2493 443
182650 790656 509
150698 225947 386
670064 814046 504
852944 980169 507
45430 761079 509
713498 430358 509
782358 290266 509
623732 228961 470
691992 470169 509
760626 667097 504
979719 182845 525
627396 101431 509
622729 999605 525
285545 211822 443
114901 243597 443
266905 348920 441
737519 729431 424
938150 770958 525
530658 295458 470
267189 807721 509
124095 358864 443
929186 49808 525
228464 836718 509
897879 511828 525
888967 38942 525
286685 825403 509
531030 561939 452
201442 455849 449
558488 336887 470
498979 627137 509
56928 975791 525
725619 673875 504
668823 483645 509
7091 140513 354
941710 207520 525
16578 906952 525
84825 610631 470
526143 959126 525
165571 336276 443
868320 931220 476
976574 340621 525
193286 606032 470
286480 611867 470
507771 802029 509
223511 873849 525
828681 845938 525
143126 260646 443
