981344 539561
955085 902931
432146 806033
331597 22210
542144 821100
262719 516858
586667 666495
59681 634078
711046 731479
572656 783829
536353 157924
202079 380290
125223 393882
614385 418030
459030 859209
900230 609476
255247 50263
317774 973834
997616 714147
65664 244582
675332 528308
713434 784364
835336 577596
738241 631434
57066 557466
284090 334969
460332 556987
777957 759648
430315 857633
255388 3727
389292 647318
377054 196006
916184 85730
174113 197353
956909 448268
383885 885586
623960 550974
429897 366443
828522 545520
739275 957064
200088 267121
962424 33304
626930 626322
641864 592458
819448 408356
744555 829448
661217 293282
636893 972664
620235 532058
174931 726027
984735 193380
655458 44893
925389 405627
251863 39887
226893 258059
251052 287496
84787 912959
384767 202331
739033 116949
466944 626492
763119 517039
935269 752632
514990 694939
144451 259605
308058 685767
199440 363134
411469 477053
112234 721067
189734 625403
297218 903667
978225 477747
25650 174989
510266 177196
661913 324071
363404 818629
955965 688719
511182 999797
860034 246967
72744 450312
397022 480126
171001 695157
911502 668906
260192 429520
314832 572769
912946 24778
817035 553773
758931 741905
277195 439568
829703 274402
363248 618791
463598 600118
285084 241923
768448 645101
520244 508827
622717 903149
338826 851591
76406 667649
286407 931670
629443 170637
766540 448781
835182 214560
731394 392434
225578 255987
716986 181548
362381 949119
985495 989593
119113 319954
228252 110482
385182 797648
819575 912861
714514 643727
677840 854848
317880 790790
556842 662348
505957 167839
598280 330777
5352 630971
214060 174914
211578 732963
540409 58600
209319 58080
850778 260136
359005 18872
33646 555057
818780 677115
286627 294045
392515 961436
681953 762299
705453 286215
201298 542778
576000 993165
212324 655395
123405 559929
454321 923520
192419 752566
14352 960065
775542 184551
785698 831938
450007 213905
209610 236181
324393 811234
839197 501668
696999 974122
562837 262086
77797 925556
461979 823289
570797 950081
826433 781431
647348 874849
38627 169694
97112 475970
419617 834877
265757 682984
610320 266294
426410 250136
361042 151017
442572 203227
909404 187809
731291 191161
678590 441653
728568 571855
206570 876308
685259 547898
145733 121214
703084 705223
31347 567270
32194 858437
20760 825496
242910 748987
446452 389787
859051 602619
725136 310330
63485 948775
684703 851171
264269 714497
248720 758389
659729 492281
583331 310381
21011 927446
199281 211295
795059 514847
368138 534974
49005 886700
633403 696067
396019 884609
623434 539359
225324 440160
974782 704949
911444 133953
91526 290401
701212 531235
565541 904711
524531 207553
382773 2493
182650 790656
150698 225947
670064 814046
852944 980169
45430 761079
713498 430358
782358 290266
623732 228961
691992 470169
760626 667097
979719 182845
627396 101431
622729 999605
285545 211822
114901 243597
266905 348920
737519 729431
938150 770958
530658 295458
267189 807721
124095 358864
929186 49808
228464 836718
897879 511828
888967 38942
286685 825403
531030 561939
201442 455849
558488 336887
498979 627137
56928 975791
725619 673875
668823 483645
7091 140513
941710 207520
16578 906952
84825 610631
526143 959126
165571 336276
868320 931220
976574 340621
193286 606032
286480 611867
507771 802029
223511 873849
828681 845938
143126 260646
