257132 418775 449
501416 960994 525
253373 35565 443
198869 344797 443
485542 685314 509
925279 962897 507
832447 109067 509
204261 430440 449
945183 915718 507
811040 279436 509
529010 659540 509
255790 993788 525
497796 316463 449
726085 416140 509
418957 362202 449
903310 264087 525
684077 353063 509
183998 705114 509
545066 70775 470
156564 716443 509
15993 428174 449
679284 669916 385
128342 473533 449
566528 322947 470
399737 429193 449
488980 269784 449
743138 355132 509
856685 576308 525
911985 95526 525
942428 434719 525
562969 927970 525
726675 378394 509
990428 163060 525
832625 746778 468
430768 201726 449
399791 92701 443
542465 721303 509
871591 994508 507
966951 807030 525
833719 961546 525
370333 256231 441
931088 434094 525
423595 395829 449
602500 937619 525
530244 444792 470
290470 131082 443
395300 619290 470
511633 517898 470
280369 997587 525
915560 343324 525
393020 613693 470
806088 485100 509
975145 87816 525
282263 343669 389
500677 411208 444
248930 538721 470
60484 423239 449
431043 383842 449
362083 717802 509
694434 785414 504
901229 500191 525
850286 930554 476
365569 324310 441
601606 918530 525
891634 365320 525
149043 638054 509
108575 853449 525
210966 278038 443
20783 656711 509
2453 623764 470
233874 770109 509
442777 191849 449
3512 816967 509
323000 210401 443
565429 851021 525
717316 84309 509
719000 927805 525
423637 320507 449
63821 280044 443
306945 684429 509
432684 60399 449
195177 189318 360
430908 402905 449
816211 104220 509
742794 578842 509
882173 839587 432
917034 88698 525
560425 519029 452
229505 817782 509
468905 49307 449
947287 235704 525
424628 331296 449
470733 880214 525
937468 278976 525
817155 932658 525
420566 526604 470
340206 970846 525
178824 925624 525
31355 156825 383
467931 403502 449
300790 909406 525
940796 883600 507
336771 106252 443
886597 669253 525
64473 716066 509
457709 956102 525
26589 728469 509
112165 117551 349
927817 39680 525
758227 351662 509
763805 135042 509
941268 751792 525
780 997203 525
246068 99900 443
818490 613887 509
86707 24508 351
704390 718482 504
951487 675515 525
122150 35069 354
138981 484809 449
321526 954575 525
507541 936590 525
853239 175321 525
640563 181342 509
519078 95061 470
50682 235802 443
878845 43649 525
979342 94354 525
274313 483441 449
185293 619301 470
225298 693106 509
577623 659997 509
423638 503784 444
771968 76357 509
271975 744532 509
156041 603753 470
850133 335549 525
208664 739515 509
593599 142409 470
251596 225874 443
821502 273105 509
874984 707584 525
821598 403172 509
821379 314797 509
711242 75402 509
344841 506487 449
333465 155698 443
131674 517914 470
13334 863381 525
806980 709510 468
122348 162334 383
807372 681537 504
565031 192504 470
827355 620832 509
485058 465300 413
939306 15005 525
617856 471210 470
477241 460926 444
837253 211343 509
451716 97166 449
671826 330128 509
390101 395201 405
711793 354289 509
868032 196851 525
318978 111106 443
678507 292524 509
854420 494789 525
75783 384146 443
257513 988332 525
562900 833958 509
775091 25271 509
756709 965191 525
115070 964897 525
830599 296669 509
652542 179477 509
39099 917689 525
674347 427047 509
405076 167522 443
341594 626568 509
30547 820857 509
530019 301011 470
768333 219934 509
256331 605384 470
320271 795357 509
373458 656735 509
736593 165696 509
351528 490720 449
921742 27291 525
921245 383799 525
445997 256645 449
900980 194857 525
576913 144358 470
818242 432159 509
296691 417912 449
403600 492261 449
655031 444424 509
560808 347331 470
806332 234204 509
306459 820830 509
476525 287254 449
974028 210330 525
449328 138340 449
126618 840045 525
852300 8108 525
