951829 207496
182980 464916
80825 352715
42183 849181
788501 264052
749427 405316
539754 583653
413994 401114
726313 218627
57094 319661
860167 770074
611827 163343
235476 914542
783380 508607
686606 358266
458501 341829
634346 287796
990495 84690
634994 117563
251685 983034
196857 143070
653647 551145
424657 824484
437455 344949
180288 753187
266789 717865
245577 321108
866008 658016
785791 496056
680723 514790
369559 711439
514578 842688
146036 78371
67310 112794
973297 817978
114895 53163
385013 237436
908726 454778
535608 919947
301348 636408
940202 113039
647040 758405
980619 113030
4805 956008
997401 483276
270135 555774
669544 921230
908069 371427
714504 914349
133490 33587
658681 770461
397393 232146
57838 548167
934087 78978
359282 624338
170615 380340
207614 785139
285286 150784
163471 349419
321928 858252
298471 920035
41787 92888
290019 438464
221941 191586
988510 853006
335799 974647
644502 373168
677504 489570
82591 252768
257352 582135
845771 439764
499878 912077
400008 240456
22525 686630
617602 976220
78137 828461
554912 644334
170175 623738
271517 930305
161056 793867
367253 511500
23224 243536
260346 287484
297458 45421
776417 294577
319040 246142
888278 625342
92919 990672
53041 342535
353442 938549
867667 182087
822332 748182
307062 41271
185972 133478
657406 803765
996559 367107
359323 526550
664301 140324
558078 632116
490042 769316
39989 867638
71136 794915
211603 611341
19012 597062
156333 686390
429187 376410
379406 475179
918373 874960
799139 14922
119473 660013
471731 537170
249776 947112
186295 767774
245313 342292
477226 771649
259830 978706
886972 563582
280488 127211
357914 896083
595780 272094
498950 873402
226689 374434
864824 58896
158569 131646
143590 826723
353845 969813
259980 880434
739367 357762
621492 502287
250270 463136
92818 620973
202727 372337
112452 966066
794183 69332
902534 433158
152769 427335
982396 795238
45172 310593
225739 28252
793564 565304
118579 475926
609823 868895
587744 896386
135465 982609
762205 760536
449645 750834
663968 52814
434526 176778
417738 656557
350907 168075
164912 149438
835383 747143
625593 870407
565613 739743
383707 718691
26171 348690
714966 254350
700427 96371
660696 995050
735219 481428
299494 833129
415035 950070
933286 326672
866313 156067
202316 681840
792239 204931
142888 202776
177772 872715
862037 35762
920692 296119
976932 471465
659752 499696
107576 828664
14971 779115
621473 932756
269127 329859
381635 469469
653599 739888
981416 824574
439604 256205
145020 723075
394113 285389
483847 857165
266770 333427
47748 724324
34861 117635
86141 708118
994362 429145
724229 859101
917225 708823
144494 206491
514956 110223
629870 659995
10451 474088
534918 588648
119846 670614
219337 547489
492392 458752
316197 120351
388256 916951
448457 784128
698034 194415
449681 179071
557162 466277
779979 963240
763125 70728
384419 872690
750295 606063
504862 617690
856340 684373
