388465 881872
71932 89627
597887 545557
636060 617310
428868 838051
766407 941158
182653 249038
103372 320311
612942 953031
714549 925496
695924 546282
602062 105274
148500 649180
658302 535977
23951 261740
979648 516721
877693 395843
438066 735680
953198 490894
132580 805642
4889 877890
34797 884226
190017 414310
465265 426514
906380 270491
810948 984258
14540 914153
74311 210864
273211 762620
200200 373725
402074 75881
253011 133581
869158 604247
290652 957362
305554 842158
316165 395383
297464 337355
828771 387518
412447 252678
29917 90622
980655 300686
951372 732161
72297 477728
652962 787513
124695 869544
650874 424449
147758 932669
704711 211284
880814 181500
896641 832215
774571 551935
200905 851972
324170 637411
17979 968068
887878 450042
597575 190846
156259 698834
18696 963769
805951 721755
331088 566539
335767 198629
93867 890187
225746 770751
968120 693848
576654 397460
874660 713234
573237 171511
29249 628208
564157 601988
657402 958767
798296 818689
429435 883698
447194 666876
554833 808988
973980 751455
791365 679349
538999 140893
36681 291997
852146 768306
320756 250068
479833 937822
575921 562527
10636 265077
708851 172119
467495 137827
309040 1464
881153 799591
98257 886490
568739 596247
86884 256680
745215 838153
602758 517672
98160 91655
366606 551681
788095 90771
714133 45875
244915 523556
587419 741518
92544 802440
392975 840943
712982 262180
73825 630573
125807 193963
440409 145462
937417 348426
609550 647280
16240 403473
432886 974599
304797 648127
518423 235554
488415 536086
268959 962440
409317 473099
551066 114872
142795 692028
378512 43947
926786 589480
574593 197886
632326 158722
601064 36953
970106 132607
788502 113185
308036 41575
602730 701297
881341 691101
560518 223886
667116 32361
312059 298591
658054 756316
544344 981641
932386 55360
158206 971028
338999 65915
250023 441411
18874 606780
530355 246466
335923 154336
139080 4602
494923 934016
847874 256982
674619 335116
166214 292911
497116 145427
945042 193032
51950 860530
699251 590989
996013 116125
31450 862253
792598 964778
904951 21313
957574 562839
37740 499524
289673 522784
893163 77751
952194 118384
55058 556946
416478 793572
555900 405523
608632 12554
919908 162468
814283 832106
62780 650586
807664 851773
224437 153877
126804 448317
987473 783082
584863 256214
223746 966503
697672 827499
806407 245656
594226 558924
901619 549792
213660 569216
165916 968374
978241 999684
934151 801467
273469 842887
62264 258372
870720 290333
549813 390463
814826 246672
625646 479215
142921 322205
778803 669527
781595 944043
811342 800452
944056 580878
717150 365474
814375 567750
589780 621145
146244 883133
81375 387734
973793 657046
898474 250420
893034 916290
504019 26062
944276 855049
886791 369458
319328 271829
70215 117704
980346 828365
264632 675547
138889 734819
983856 363291
177406 730110
480231 689434
34342 933356
101129 925335
335623 934375
462749 916403
820463 432715
758893 131285
784716 652970
728071 261730
235962 90376
331569 239255
182650 932988
290973 420489
57834 247413
433548 143512
136878 720677
641723 234855
779580 610104
100376 727529
889750 34026
931056 23390
