22594 966418 525
512990 92231 470
147567 557486 470
359389 457396 449
870601 878392 432
600200 297538 470
385157 459097 449
663248 162229 509
760720 679138 504
730834 830969 468
326533 810444 509
18041 843588 525
14357 552873 470
938284 861511 476
185342 518888 470
836837 541988 509
424101 674958 509
765817 641229 504
258564 230634 381
385659 455830 449
301700 740684 509
463641 547234 470
941632 270973 525
249546 546317 470
322104 559460 470
412163 774818 509
778167 908026 525
961237 118246 525
975855 298188 525
83325 613044 470
750926 486624 509
534612 110581 470
949348 599824 525
914427 221710 525
148844 635040 509
332154 317434 384
335715 621127 470
300192 795746 509
766548 595968 509
425938 467553 444
402921 813570 509
923613 180153 525
368934 158685 443
866082 805778 525
367457 486910 449
132179 49277 354
41622 776994 509
320738 170653 443
446310 968454 525
625420 734611 509
122936 281898 443
990322 186134 525
318747 786713 509
755227 208061 509
516580 167233 470
821710 765521 468
279632 460140 449
217685 794225 509
856547 475557 525
979985 689975 525
638453 130304 509
468386 523138 470
527885 96996 470
161222 5645 383
26217 869843 525
471123 286290 449
80857 814329 509
879629 720008 525
496642 124318 449
353117 634854 509
494306 274861 449
94447 278519 443
728316 163969 509
103155 802081 509
893031 197896 525
577749 99378 470
149987 544119 470
927144 836140 525
634276 420620 509
81956 978891 525
963652 280890 525
613533 516897 452
547497 307061 470
141644 386666 443
478370 911164 525
68096 702384 509
772996 554199 509
876996 524863 525
364415 951334 525
85581 436608 449
229640 631454 509
168561 969157 525
310193 950699 525
656585 73807 509
926535 990969 507
820429 823833 375
287045 539135 470
456492 256762 449
906359 70643 525
475554 903876 525
151391 127105 375
112362 137044 349
371058 918174 525
658352 414373 509
946998 691453 525
46519 758854 509
275777 130213 443
245134 43061 443
586201 262448 470
341754 881962 525
430879 697822 509
664687 773851 504
247561 323086 407
355100 260760 441
204376 713813 509
154436 379822 443
622841 286980 470
49780 403884 443
759087 121230 509
744214 449525 509
938032 300785 525
67590 622921 470
192526 577520 470
552600 727794 509
870796 611279 525
62760 495518 449
5153 935540 525
993613 298527 525
709367 612841 509
652195 734933 504
367008 179458 443
805470 522235 509
485256 298440 449
250435 181729 443
784985 17461 509
978739 494456 525
478101 552954 470
202213 292646 443
891884 580200 525
921582 365572 525
586747 488988 470
345738 945019 525
656910 907782 525
284480 958511 525
972011 968860 458
657869 593942 509
368106 746644 509
852435 608357 525
885750 34139 525
993962 701175 525
834375 431887 509
849170 356551 525
135776 819797 509
119842 647871 509
409634 498892 449
361312 558238 470
374072 853000 525
173047 890398 525
84572 428057 449
589858 120788 470
384909 618678 470
302125 839949 525
50237 580146 470
495746 155773 449
47602 10885 324
211698 627458 509
413417 239396 449
37061 370118 443
768090 366074 509
282236 936030 525
270957 430055 449
254939 306452 407
616874 401374 470
193247 125570 383
603282 314646 470
747985 281474 509
154996 856029 525
11667 945776 525
746675 73660 509
874992 216770 525
437009 319705 449
436252 169696 449
622052 271491 470
270761 332851 389
728581 658036 504
577017 73735 470
617326 122926 470
162068 800181 509
767976 217826 509
783581 176155 509
841550 858903 419
473624 733848 509
841356 962282 507
780451 797350 468
990068 179726 525
947460 980929 458
3968 613002 470
41199 594534 470
978970 229602 525
272256 363725 441
26658 948977 525
361669 524467 470
283044 805170 509
487616 839270 525
292092 744840 509
578788 422341 470
279415 896847 525
572571 973908 525
368977 969296 525
230725 692843 509
713193 962580 525
841047 397217 525
30422 436014 449
104816 204139 383
401581 604061 470
319033 878728 525
610682 320738 470
206808 943090 525
295333 809751 509
293420 599516 470
416483 955950 525
532337 675382 509
721147 429825 509
666943 512853 509
856150 336938 525
904362 890779 401
206712 282935 443
218435 170026 386
283032 837146 509
923076 502930 525
353630 436887 449
189289 145939 383
907973 342579 525
448401 348941 449
362330 126820 443
561756 645727 509
163913 562768 470
223213 228061 368
975689 127791 525
92874 94534 315
178503 44703 383
546706 79375 470
462724 403524 449
276080 617385 470
96976 293138 443
274068 359063 441
753336 984162 525
345351 846267 525
360037 959639 525
360718 375883 392
578330 739536 509
894997 173298 525
687640 587195 509
954032 828640 525
762324 840309 525
204345 217862 386
966794 750612 525
417382 250564 449
876114 290788 525
24069 633955 509
662880 649946 429
852589 329564 525
397465 281488 441
259384 874007 525
296308 955146 525
669637 344150 509
338509 270877 389
805544 629918 504
758069 330280 509
102873 382223 443
344863 365236 441
447467 920742 525
635746 318068 509
364198 299203 441
660620 986176 525
404949 839724 525
337818 557135 470
334555 216734 443
976737 334596 525
247324 957756 525
355574 578327 470
812926 938292 525
202584 452164 449
56635 633123 509
984039 418092 525
506499 395163 449
598689 326871 470
540937 9447 470
288574 983962 525
642910 986816 525
551839 47247 470
883455 53452 525
707401 186099 509
391994 925296 525
932207 261966 525
88582 742512 509
234048 276492 407
377621 664951 509
403951 283831 441
523150 664143 509
